…
``` r
# We know we want TX_CURRdata only for USAID and CDC in Sofala in FY22, and standardizeddisaggregate =Total Numerator

# Dont forward to filter on total numerator!
df_msd %>% 
  gophr::clean_agency() %>% 
  filter(snu1 == "Sofala",
         fiscal_year == 2022,
         funding_agency %in% c("CDC", "USAID"),
         indicator == "TX_CURR",
         standardizeddisaggregate == "Total Numerator")
```

    ## # A tibble: 23 x 43
    ##    operatin~1 opera~2 country snu1  snu1uid psnu  psnuuid snupr~3 typem~4 dreams
    ##    <chr>      <chr>   <chr>   <chr> <chr>   <chr> <chr>   <chr>   <chr>   <chr> 
    ##  1 Mozambique h11Oyv~ Mozamb~ Sofa~ SEWXP7~ Nham~ aKC8ch~ 2 - Sc~ N       N     
    ##  2 Mozambique h11Oyv~ Mozamb~ Sofa~ SEWXP7~ Caia  yui33D~ 2 - Sc~ N       Y     
    ##  3 Mozambique h11Oyv~ Mozamb~ Sofa~ SEWXP7~ Beira c4qdq9~ 2 - Sc~ N       Y     
    ##  4 Mozambique h11Oyv~ Mozamb~ Sofa~ SEWXP7~ Marr~ ZMR1mJ~ 2 - Sc~ N       N     
    ##  5 Mozambique h11Oyv~ Mozamb~ Sofa~ SEWXP7~ Chib~ Bp2zX2~ 2 - Sc~ N       N     
    ##  6 Mozambique h11Oyv~ Mozamb~ Sofa~ SEWXP7~ Beira c4qdq9~ 2 - Sc~ N       Y     
    ##  7 Mozambique h11Oyv~ Mozamb~ Sofa~ SEWXP7~ Buzi  qwJ8zD~ 2 - Sc~ N       N     
    ##  8 Mozambique h11Oyv~ Mozamb~ Sofa~ SEWXP7~ Cher~ lZAKLV~ 2 - Sc~ N       N     
    ##  9 Mozambique h11Oyv~ Mozamb~ Sofa~ SEWXP7~ Goro~ iuqTSk~ 2 - Sc~ N       N     
    ## 10 Mozambique h11Oyv~ Mozamb~ Sofa~ SEWXP7~ Dondo QJviLU~ 2 - Sc~ N       N     
    ## # ... with 13 more rows, 33 more variables: prime_partner_name <chr>,
    ## #   funding_agency <chr>, mech_code <chr>, mech_name <chr>,
    ## #   prime_partner_duns <chr>, prime_partner_uei <chr>, award_number <chr>,
    ## #   indicator <chr>, numeratordenom <chr>, indicatortype <chr>,
    ## #   disaggregate <chr>, standardizeddisaggregate <chr>,
    ## #   categoryoptioncomboname <chr>, ageasentered <chr>, age_2018 <chr>,
    ## #   age_2019 <chr>, trendscoarse <chr>, sex <chr>, statushiv <chr>, ...
…
Let’s say I wanted to get the orgunituid for each OU. I could use the
function `grabr::get_orguids()` to grab ever uid at the specific level I
determine. In this case, I’ll specify level = 3 to get the OU level.

``` r
grabr::get_orguids(level = 3)
```

    ## # A tibble: 28 x 2
    ##    uid         orgunit                         
    ##    <chr>       <chr>                           
    ##  1 XOivy2uDpMF Angola                          
    ##  2 ptVxnBssua6 Asia Region                     
    ##  3 l1KFEXKI4Dg Botswana                        
    ##  4 Qh4XMQJhbk8 Burundi                         
    ##  5 bQQJe0cC1eD Cameroon                        
    ##  6 ds0ADyc9UCU Cote d'Ivoire                   
    ##  7 ANN4YCOufcP Democratic Republic of the Congo
    ##  8 NzelIFhEv3C Dominican Republic              
    ##  9 V0qMZH29CtN Eswatini                        
    ## 10 IH1kchw86uA Ethiopia                        
    ## # ... with 18 more rows
…
